[2019-06-25 17:21:56.759] [cli] [info] main {"_":[],"help":false,"h":false,"version":false,"v":false,"wait":false,"w":false,"diff":false,"d":false,"add":false,"a":false,"goto":false,"g":false,"new-window":false,"n":false,"unity-launch":false,"reuse-window":false,"r":false,"open-url":false,"performance":false,"p":false,"prof-startup":false,"verbose":false,"logExtensionHostCommunication":false,"disable-extensions":false,"disableExtensions":false,"list-extensions":false,"show-versions":false,"nolazy":false,"issue":false,"skip-getting-started":false,"skip-release-notes":false,"sticky-quickopen":false,"disable-restore-windows":false,"disable-telemetry":false,"disable-updates":false,"disable-crash-reporter":false,"skip-add-to-recently-opened":false,"status":false,"s":false,"file-write":false,"file-chmod":false,"driver-verbose":false,"trace":false,"install-extension":"C:\\Users\\Public\\frc2019\\vsCodeExtensions\\Cpp.vsix"}
[2019-06-25 17:21:57.958] [cli] [info] Scanned user extensions: 0
[2019-06-25 17:21:58.008] [cli] [info] Scanned user extensions: 0
[2019-06-25 17:21:58.009] [cli] [info] Scanned user extensions: 0
[2019-06-25 17:21:58.009] [cli] [info] Installing the extension: ms-vscode.cpptools-0.21.0
[2019-06-25 17:21:58.228] [cli] [info] Scanned user extensions: 0
[2019-06-25 17:21:58.552] [cli] [info] Scanned system extensions: 71
[2019-06-25 17:22:01.796] [cli] [info] Extracted extension to C:\Users\Public\frc2019\vscode\data\extensions\.ms-vscode.cpptools-0.21.0: ms-vscode.cpptools-0.21.0
[2019-06-25 17:22:01.799] [cli] [info] Renamed to C:\Users\Public\frc2019\vscode\data\extensions\ms-vscode.cpptools-0.21.0
[2019-06-25 17:22:01.815] [cli] [info] Installation completed. ms-vscode.cpptools-0.21.0
[2019-06-25 17:22:01.828] [cli] [info] Successfully installed the extension: ms-vscode.cpptools-0.21.0
